<svg width="32" height="32" viewBox="0 0 32 32" fill="none" xmlns="http://www.w3.org/2000/svg">
<g clip-path="url(#clip0_38_433)">
<path d="M32 0H0V32H32V0Z" fill="white"/>
<path fill-rule="evenodd" clip-rule="evenodd" d="M16 4L26 9.99984V13.2147V18.8854V22.0002L16 28L6.00001 22.0002V9.99984L16 4ZM26 18.8854V13.2147L23.4178 17.3626L26 18.8854ZM23.4178 17.8646L25.3393 19.0063L16 24.5843L9.08354 20.4346L11.0032 19.2747L16 22.2727L23.4178 17.8646ZM11.2089 18.8744L16 21.749L23.4178 17.3626L26 13.2147L16.0005 19.2102L13.3024 17.606V14.452L18.1253 11.5262L16 10.251L11.2089 13.1256V18.8744ZM16.218 9.85808L18.5593 11.2629L20.4751 10.1006L16.218 7.54648V9.85808ZM15.782 7.54648L8.84605 11.708V20.0535L10.7729 18.8893V12.8635L15.782 9.85808V7.54648ZM8.61295 11.3242L16 6.892L23.3719 11.3151L25.3456 10.1309L16 4.52368L6.6622 10.1262L8.61295 11.3242ZM6.43601 10.5141V21.7381L15.782 27.3455V24.9772L8.41005 20.5542V11.7263L6.43601 10.5141ZM16.218 24.9772V27.3455L25.564 21.7292V19.3952L16.218 24.9772ZM25.564 12.9486V10.5235L16.218 16.131V18.5561L25.564 12.9486ZM15.782 18.5578V16.1342L13.7384 14.9658V17.3427L15.782 18.5578ZM13.9629 14.5765L15.9974 15.7397L23.3719 11.3151L21.3478 10.1006L13.9629 14.5765Z" fill="#2363DE"/>
<path d="M16.218 24.9772V27.3455L25.564 21.7291V19.3951L16.218 24.9772Z" fill="#689BFF"/>
<path d="M6.436 10.5141V21.7381L15.782 27.3455V24.9772L8.41004 20.5542V11.7263L6.436 10.5141Z" fill="#689BFF"/>
<path d="M25.564 10.5235V12.9486L16.218 18.5561V16.131L25.564 10.5235Z" fill="#689BFF"/>
<path d="M25.3456 10.1309L23.3719 11.3151L15.9974 15.7397L13.9628 14.5765L21.3478 10.1006L16 6.892L8.61295 11.3242L6.6622 10.1262L16 4.52368L25.3456 10.1309Z" fill="#689BFF"/>
<path d="M15.782 18.5579V16.1343L13.7384 14.9659V17.3428L15.782 18.5579Z" fill="#689BFF"/>
<path d="M25.3393 19.0063L23.4178 17.8647L16 22.2727L11.0032 19.2747L9.08353 20.4346L16 24.5844L25.3393 19.0063Z" fill="#689BFF"/>
<path d="M16.218 9.85808L18.5593 11.2628L20.475 10.1006L16.218 7.54648V9.85808Z" fill="#689BFF"/>
<path d="M15.782 7.54648L8.84604 11.7079V20.0534L10.7729 18.8893V12.8635L15.782 9.85808V7.54648Z" fill="#689BFF"/>
</g>
<defs>
<clipPath id="clip0_38_433">
<rect width="32" height="32" fill="white"/>
</clipPath>
</defs>
</svg>
